<svg width="23" height="29" viewBox="0 0 23 29" version="1.1" xmlns="http://www.w3.org/2000/svg" xmlns:xlink="http://www.w3.org/1999/xlink">
<title>Group</title>
<desc>Created using Figma</desc>
<g id="Canvas" transform="translate(5443 3008)">
<g id="Group">
<g id="Shape">
<use xlink:href="#path0_fill" transform="translate(-5443 -3001)" fill="#FFFFFF"/>
</g>
<g id="Shape">
<use xlink:href="#path1_fill" transform="translate(-5431.57 -3008)" fill="#FFFFFF"/>
</g>
</g>
</g>
<defs>
<path id="path0_fill" fill-rule="evenodd" d="M 19.2103 8.42677C 19.1781 4.76306 22.1346 2.98065 22.2698 2.89767C 20.5954 0.39343 18.0002 0.0512709 17.0882 0.0239891C 14.9086 -0.211316 12.7943 1.36193 11.684 1.36193C 10.5515 1.36193 8.8417 0.0467239 6.99892 0.0853731C 4.62757 0.122885 2.40913 1.53131 1.19243 3.71839C -1.31854 8.17782 0.55416 14.7311 2.95986 18.3357C 4.16327 20.1011 5.56946 22.0722 7.41003 22.0028C 9.2107 21.9267 9.88332 20.8252 12.0563 20.8252C 14.2094 20.8252 14.841 22.0028 16.7181 21.9585C 18.6507 21.9267 19.8674 20.1852 21.0287 18.4039C 22.4194 16.3805 22.9778 14.3878 23 14.2855C 22.9546 14.2696 19.2468 12.818 19.2103 8.42677Z"/>
<path id="path1_fill" fill-rule="evenodd" d="M 4.23474 4.64813C 5.20323 3.40567 5.86588 1.71534 5.68193 0C 4.28017 0.0636574 2.52714 0.994647 1.51766 2.20982C 0.624523 3.28063 -0.173315 5.03576 0.0327936 6.6863C 1.60742 6.8068 3.22415 5.87126 4.23474 4.64813Z"/>
</defs>
</svg>
