<svg width="115" height="45" viewBox="0 0 115 45" version="1.1" xmlns="http://www.w3.org/2000/svg" xmlns:xlink="http://www.w3.org/1999/xlink">
<title>Group</title>
<desc>Created using Figma</desc>
<g id="Canvas" transform="translate(5266 2268)">
<g id="Group">
<g id="icon">
<g id="Group">
<g id="Vector">
<use xlink:href="#path0_fill" transform="translate(-5238.31 -2262.81)" fill="#91455F"/>
</g>
<g id="Vector">
<use xlink:href="#path1_fill" transform="translate(-5266 -2268)" fill="#91455F"/>
</g>
</g>
</g>
<g id="add">
<g id="Vector">
<use xlink:href="#path2_fill" transform="translate(-5214 -2256)" fill="#91455F"/>
</g>
</g>
<g id="csv">
<g id="Group">
<g id="Vector">
<use xlink:href="#path3_fill" transform="translate(-5185 -2268)" fill="#91455F"/>
</g>
<g id="Vector">
<use xlink:href="#path4_fill" transform="translate(-5178.14 -2234.8)" fill="#91455F"/>
</g>
<g id="Vector">
<use xlink:href="#path5_fill" transform="translate(-5171.19 -2234.8)" fill="#91455F"/>
</g>
<g id="Vector">
<use xlink:href="#path6_fill" transform="translate(-5165.81 -2234.68)" fill="#91455F"/>
</g>
<g id="Vector">
<use xlink:href="#path7_fill" transform="translate(-5180.47 -2258.14)" fill="#91455F"/>
</g>
</g>
</g>
</g>
</g>
<defs>
<path id="path0_fill" d="M 15.8573 0L 0 0L 0 5.16462L 5.24596 5.16462L 5.24596 8.67981L 0 8.67981L 0 12.1154L 5.19231 12.1154L 5.19231 15.5769L 0 15.5769L 0 19.0385L 5.19231 19.0385L 5.19231 22.5L 0 22.5L 0 25.9615L 5.19231 25.9615L 5.19231 29.4231L 0 29.4231L 0 34.6154L 15.8573 34.6154C 16.6552 34.6154 17.3077 33.9387 17.3077 33.1096L 17.3077 1.50577C 17.3077 0.676731 16.6552 0 15.8573 0ZM 13.8462 29.4231L 6.92308 29.4231L 6.92308 25.9615L 13.8462 25.9615L 13.8462 29.4231ZM 13.8462 22.5L 6.92308 22.5L 6.92308 19.0385L 13.8462 19.0385L 13.8462 22.5ZM 13.8462 15.5769L 6.92308 15.5769L 6.92308 12.1154L 13.8462 12.1154L 13.8462 15.5769ZM 13.8462 8.65385L 6.92308 8.65385L 6.92308 5.19231L 13.8462 5.19231L 13.8462 8.65385Z"/>
<path id="path1_fill" d="M 0 5.00019L 0 40.0015L 25.9615 45L 25.9615 0L 0 5.00019ZM 16.4215 31.2923L 13.4013 25.5825C 13.2871 25.3696 13.1694 24.9785 13.0465 24.409L 12.9998 24.409C 12.9427 24.6773 12.8077 25.0858 12.5948 25.6327L 9.56423 31.2923L 4.85827 31.2923L 10.4452 22.5277L 5.33423 13.7613L 10.1388 13.7613L 12.645 19.0177C 12.8406 19.4331 13.0154 19.9263 13.1712 20.4958L 13.2196 20.4958C 13.3183 20.1531 13.5017 19.6442 13.77 18.9675L 16.5565 13.7596L 20.9562 13.7596L 15.6998 22.4515L 21.1033 31.2906L 16.4215 31.2923Z"/>
<path id="path2_fill" d="M 20 9.04762L 10.9524 9.04762L 10.9524 0L 9.04762 0L 9.04762 9.04762L 0 9.04762L 0 10.9524L 9.04762 10.9524L 9.04762 20L 10.9524 20L 10.9524 10.9524L 20 10.9524L 20 9.04762Z"/>
<path id="path3_fill" d="M 33.5844 9.24531L 33.0019 8.66041L 25.3746 1.00214L 24.792 0.417241C 24.5284 0.152483 24.1627 0 23.7887 0L 1.86093 0C 0.964845 0 0 0.694897 0 2.21972L 0 29.5862L 0 42.1315L 0 42.4828C 0 43.1177 0.636178 43.7368 1.38871 43.9317C 1.42649 43.9416 1.46276 43.956 1.50204 43.9636C 1.61991 43.9871 1.74004 44 1.86093 44L 32.1391 44C 32.26 44 32.3801 43.9871 32.498 43.9636C 32.5372 43.956 32.5735 43.9416 32.6113 43.9317C 33.3638 43.7368 34 43.1177 34 42.4828L 34 42.1315L 34 29.5862L 34 10.604C 34 10.0221 33.9305 9.59276 33.5844 9.24531ZM 31.3064 9.10345L 24.9333 9.10345L 24.9333 2.70448L 31.3064 9.10345ZM 1.86093 42.4828C 1.80729 42.4828 1.75893 42.463 1.71133 42.4456C 1.59347 42.3895 1.51111 42.2711 1.51111 42.1315L 1.51111 31.1034L 32.4889 31.1034L 32.4889 42.1315C 32.4889 42.2711 32.4065 42.3887 32.2887 42.4456C 32.2411 42.463 32.1927 42.4828 32.1391 42.4828L 1.86093 42.4828ZM 1.51111 29.5862L 1.51111 2.21972C 1.51111 2.0551 1.53604 1.51724 1.86093 1.51724L 23.466 1.51724C 23.4411 1.61283 23.4222 1.71145 23.4222 1.81386L 23.4222 10.6207L 32.1935 10.6207C 32.2955 10.6207 32.3929 10.6017 32.4881 10.5767C 32.4881 10.5881 32.4889 10.5926 32.4889 10.604L 32.4889 29.5862L 1.51111 29.5862Z"/>
<path id="path4_fill" d="M 1.85338 1.66365C 2.03547 1.43152 2.24249 1.26841 2.47293 1.17131C 2.70338 1.07421 2.94591 1.02641 3.20129 1.02641C 3.42871 1.02641 3.64707 1.07193 3.85711 1.16145C 4.06716 1.25097 4.25831 1.39662 4.43058 1.5969L 5.28813 0.829172C 5.00556 0.553035 4.6852 0.345173 4.32782 0.207104C 3.96969 0.0682762 3.58436 1.20387e-06 3.17107 1.20387e-06C 2.72302 1.20387e-06 2.30671 0.0842074 1.92138 0.254138C 1.53529 0.424069 1.19982 0.670622 0.914222 0.99607C 0.628622 1.32152 0.404223 1.72738 0.242534 2.21441C 0.0808448 2.70221 2.47871e-07 3.26738 2.47871e-07 3.90993C 2.47871e-07 4.55248 0.0808448 5.11993 0.242534 5.61076C 0.404223 6.10159 0.627867 6.50972 0.914222 6.83441C 1.19982 7.15986 1.53378 7.4049 1.91609 7.57104C 2.2984 7.73717 2.71698 7.81986 3.17107 7.81986C 3.58436 7.81986 3.96969 7.75083 4.32782 7.61276C 4.68596 7.47393 5.00556 7.26683 5.28813 6.99069L 4.43058 6.23359C 4.25151 6.43462 4.05356 6.57952 3.83671 6.66903C 3.61987 6.75855 3.38716 6.80407 3.13933 6.80407C 2.89151 6.80407 2.65502 6.75097 2.43138 6.64324C 2.20773 6.53552 2.00751 6.3671 1.83222 6.13497C 1.65693 5.90283 1.51867 5.60469 1.41893 5.23752C 1.3192 4.8711 1.26556 4.42883 1.25876 3.90993C 1.26556 3.37738 1.32071 2.92828 1.42422 2.56186C 1.52773 2.19545 1.67053 1.89579 1.85338 1.66365Z"/>
<path id="path5_fill" d="M 3.58813 4.02448C 3.35089 3.85152 3.094 3.70435 2.81822 3.58373C 2.54244 3.4631 2.28782 3.33869 2.0536 3.21048C 1.81938 3.08228 1.62293 2.93434 1.46502 2.76441C 1.30636 2.59448 1.22778 2.37145 1.22778 2.09531C 1.22778 1.98455 1.25498 1.86848 1.31013 1.74786C 1.36529 1.62724 1.44085 1.518 1.53756 1.4209C 1.63351 1.32379 1.74382 1.24338 1.86849 1.17738C 1.99316 1.11138 2.12311 1.07193 2.26138 1.05828C 2.5092 1.03779 2.71244 1.034 2.87111 1.04765C 3.02902 1.06207 3.15671 1.08559 3.25342 1.12048C 3.34938 1.15538 3.42418 1.18952 3.47556 1.22441C 3.52693 1.25931 3.57378 1.28662 3.61533 1.3071C 3.62213 1.30027 3.64253 1.26538 3.67729 1.20317C 3.71129 1.14097 3.75284 1.06283 3.8012 0.969516C 3.8488 0.876206 3.90093 0.776068 3.95609 0.669103C 4.01124 0.561378 4.0596 0.463517 4.1004 0.373241C 3.90018 0.242 3.63876 0.146414 3.31538 0.088C 2.99124 0.0295862 2.67089 -8.56597e-07 2.35507 -8.56597e-07C 2.04529 -8.56597e-07 1.75062 0.0477937 1.47182 0.144897C 1.19302 0.242001 0.948222 0.382346 0.738178 0.565174C 0.528134 0.748001 0.361156 0.971036 0.237245 1.23428C 0.113333 1.49752 0.0513777 1.79793 0.0513777 2.13628C 0.0513777 2.50952 0.129956 2.82055 0.288623 3.06938C 0.446534 3.31821 0.646756 3.53441 0.887778 3.71724C 1.1288 3.90007 1.3872 4.05938 1.66222 4.19441C 1.93724 4.32945 2.19413 4.46372 2.43213 4.59876C 2.67013 4.73379 2.86733 4.884 3.026 5.05014C 3.18391 5.21628 3.26324 5.41655 3.26324 5.65172C 3.26324 6.03938 3.15142 6.33145 2.92778 6.52793C 2.70413 6.72517 2.38151 6.82379 1.96218 6.82379C 1.82391 6.82379 1.67658 6.80938 1.51791 6.78207C 1.35924 6.75476 1.20133 6.71835 1.04267 6.67283C 0.884 6.62731 0.730622 6.57952 0.583289 6.52793C 0.4352 6.47634 0.3128 6.42248 0.216844 6.3671L 7.1479e-07 7.25924C 0.117112 7.36317 0.256133 7.45117 0.418578 7.524C 0.580267 7.59683 0.750267 7.65372 0.930089 7.69545C 1.10916 7.73717 1.28671 7.76676 1.462 7.78345C 1.63729 7.80014 1.80804 7.80924 1.97351 7.80924C 2.35884 7.80924 2.70338 7.75083 3.00636 7.63324C 3.30933 7.51566 3.56396 7.35862 3.77098 7.16138C 3.978 6.96414 4.13742 6.73579 4.25151 6.4771C 4.3656 6.21841 4.42227 5.94986 4.42227 5.67297C 4.42227 5.26483 4.34293 4.93103 4.18502 4.67234C 4.02333 4.41365 3.82613 4.19745 3.58813 4.02448Z"/>
<path id="path6_fill" d="M 3.18165 6.59621L 1.41516 -1.62059e-07L -5.0727e-07 -1.62059e-07L 2.36564 7.68559L 3.97724 7.68559L 6.45622 -1.62059e-07L 5.05164 -1.62059e-07L 3.18165 6.59621Z"/>
<path id="path7_fill" d="M 9.06667 0L 0 0L 0 3.03448L 0 4.55172L 0 6.06897L 0 7.58621L 0 9.10345L 0 10.6207L 0 12.1379L 0 13.6552L 0 16.6897L 7.55556 16.6897L 9.06667 16.6897L 24.9333 16.6897L 24.9333 13.6552L 24.9333 12.1379L 24.9333 10.6207L 24.9333 9.10345L 24.9333 7.58621L 24.9333 6.06897L 24.9333 3.03448L 9.06667 3.03448L 9.06667 0ZM 1.51111 4.55172L 7.55556 4.55172L 7.55556 6.06897L 1.51111 6.06897L 1.51111 4.55172ZM 1.51111 7.58621L 7.55556 7.58621L 7.55556 9.10345L 1.51111 9.10345L 1.51111 7.58621ZM 1.51111 10.6207L 7.55556 10.6207L 7.55556 12.1379L 1.51111 12.1379L 1.51111 10.6207ZM 7.55556 15.1724L 1.51111 15.1724L 1.51111 13.6552L 7.55556 13.6552L 7.55556 15.1724ZM 23.4222 15.1724L 9.06667 15.1724L 9.06667 13.6552L 23.4222 13.6552L 23.4222 15.1724ZM 23.4222 12.1379L 9.06667 12.1379L 9.06667 10.6207L 23.4222 10.6207L 23.4222 12.1379ZM 23.4222 9.10345L 9.06667 9.10345L 9.06667 7.58621L 23.4222 7.58621L 23.4222 9.10345ZM 23.4222 4.55172L 23.4222 6.06897L 9.06667 6.06897L 9.06667 4.55172L 23.4222 4.55172ZM 1.51111 3.03448L 1.51111 1.51724L 7.55556 1.51724L 7.55556 3.03448L 1.51111 3.03448Z"/>
</defs>
</svg>
